frankapan-b-epist-1525-02-15.xml,25116,http://solr.ffzg.hr/basex/node/croala/25265,Modruš,Roma,"Frankapan, Bernardin","Clement VII, Pope",1525-02-15,Digitalna verzija: CroALa
frankapan-f-epist-1533-07-05.xml,25622,http://solr.ffzg.hr/basex/node/croala/25771,Budapest,Roma,"Frankopan, Franjo","Clement VII, Pope",1533-07-05,Digitalna verzija: CroALa
andreis-f-epist-1570-02-02.xml,107530,http://solr.ffzg.hr/basex/node/croala/107674,Tragurium,,"Andreis, Franjo Trankvil","Vrančić, Antun",1570-02-02,Digitalna verzija: CroALa
banic-j-epist.xml,291315,http://solr.ffzg.hr/basex/node/croala/291452,Antwerpen,Unknown,Jakov Baničević,Erasmus Roterodamus,1512-11-12,Digitalna verzija: CroALa
vrancic-a-epist-1553-08-12.xml,327488,http://solr.ffzg.hr/basex/node/croala/327603,Sofia,Belgradum,"Vrančić, Antun","Parrhisius, Petrus Franciscus",1553-08-12,Digitalna verzija: CroALa
dubrovnik-epist-1531-07-22.xml,339827,http://solr.ffzg.hr/basex/node/croala/339982,Dubrovnik,Roma,,"Clement VII, Pope",1531-07-22,Digitalna verzija: CroALa
crnkovic-p-epist.xml,351436,http://solr.ffzg.hr/basex/node/croala/351575,Unknown,Unknown,"Črnković, Petar Stanislav","Vitezović Ritter, Pavao",1702-09-28,Digitalna verzija: CroALa
baricev-aa-epist-penzel.xml,353347,http://solr.ffzg.hr/basex/node/croala/355250,Ljubljana,Zagreb,"Penzel, Abraham Jakub","Baričević, Adam Alojzije",1793-10-14,Digitalna verzija: CroALa
baricev-aa-epist-penzel.xml,353440,http://solr.ffzg.hr/basex/node/croala/355381,Zagreb,Ljubljana,"Baričević, Adam Alojzije","Penzel, Abraham Jakub",1793-10-28,Digitalna verzija: CroALa
baricev-aa-epist-penzel.xml,353533,http://solr.ffzg.hr/basex/node/croala/355436,Zagreb,Ljubljana,"Baričević, Adam Alojzije","Penzel, Abraham Jakub",1793-12-24,Digitalna verzija: CroALa
baricev-aa-epist-penzel.xml,353642,http://solr.ffzg.hr/basex/node/croala/355483,Ljubljana,Zagreb,"Penzel, Abraham Jakub","Baričević, Adam Alojzije",1794-01-03,Digitalna verzija: CroALa
baricev-aa-epist-penzel.xml,353735,http://solr.ffzg.hr/basex/node/croala/355636,Ljubljana,Zagreb,"Penzel, Abraham Jakub","Baričević, Adam Alojzije",1794-04-13,Digitalna verzija: CroALa
baricev-aa-epist-penzel.xml,353844,http://solr.ffzg.hr/basex/node/croala/355732,Ljubljana,Zagreb,"Penzel, Abraham Jakub","Baričević, Adam Alojzije",1795-10-15,Digitalna verzija: CroALa
baricev-aa-epist-penzel.xml,353937,http://solr.ffzg.hr/basex/node/croala/355799,Zagreb,Ljubljana,"Baričević, Adam Alojzije","Penzel, Abraham Jakub",1795-12-12,Digitalna verzija: CroALa
baricev-aa-epist-penzel.xml,354070,http://solr.ffzg.hr/basex/node/croala/355860,Ljubljana,Zagreb,"Penzel, Abraham Jakub","Baričević, Adam Alojzije",1795-12-27,Digitalna verzija: CroALa
baricev-aa-epist-penzel.xml,354163,http://solr.ffzg.hr/basex/node/croala/356101,Ljubljana,Zagreb,"Penzel, Abraham Jakub","Baričević, Adam Alojzije",1796-01-27,Digitalna verzija: CroALa
baricev-aa-epist-penzel.xml,354256,http://solr.ffzg.hr/basex/node/croala/356204,Ljubljana,Zagreb,"Penzel, Abraham Jakub","Baričević, Adam Alojzije",1796-12-30,Digitalna verzija: CroALa
baricev-aa-epist-penzel.xml,354349,http://solr.ffzg.hr/basex/node/croala/356262,Zagreb,Ljubljana,"Baričević, Adam Alojzije","Penzel, Abraham Jakub",1797-01-07,Digitalna verzija: CroALa
baricev-aa-epist-penzel.xml,354450,http://solr.ffzg.hr/basex/node/croala/356315,Ljubljana,Zagreb,"Penzel, Abraham Jakub","Baričević, Adam Alojzije",1797-01-30,Digitalna verzija: CroALa
baricev-aa-epist-penzel.xml,354551,http://solr.ffzg.hr/basex/node/croala/356385,Zagreb,Ljubljana,"Baričević, Adam Alojzije","Penzel, Abraham Jakub",1797-02-16,Digitalna verzija: CroALa
baricev-aa-epist-penzel.xml,354676,http://solr.ffzg.hr/basex/node/croala/356453,Ljubljana,Zagreb,"Penzel, Abraham Jakub","Baričević, Adam Alojzije",1797,Digitalna verzija: CroALa
baricev-aa-epist-penzel.xml,354985,http://solr.ffzg.hr/basex/node/croala/356884,Ljubljana,Zagreb,"Penzel, Abraham Jakub","Baričević, Adam Alojzije",1798-06-08,Digitalna verzija: CroALa
baricev-aa-epist-penzel.xml,355110,http://solr.ffzg.hr/basex/node/croala/356956,Zagreb,Ljubljana,"Baričević, Adam Alojzije","Penzel, Abraham Jakub",1799-04-15,Digitalna verzija: CroALa
vrancic-a-epist-1539-12-20.xml,382297,http://solr.ffzg.hr/basex/node/croala/382415,Buda,Cracovia,"Vrančić, Antun","Gamrat, Piotr",1539-12-20,Digitalna verzija: CroALa
vrancic-m-epist-1558-08-22.xml,382743,http://solr.ffzg.hr/basex/node/croala/,Venetiae,Unknown,"Vrančić, Mihovil","Vrančić, Antun",1558-08-22,Digitalna verzija: CroALa
sisak-epist.xml,385173,http://solr.ffzg.hr/basex/node/croala/390305,Sisak,Zagreb,,,1590-02-27,Digitalna verzija: CroALa
sisak-epist.xml,385265,http://solr.ffzg.hr/basex/node/croala/390361,Sisak,Zagreb,"Kovačić, Stjepan",,1590-10-13,Digitalna verzija: CroALa
sisak-epist.xml,385357,http://solr.ffzg.hr/basex/node/croala/390411,Sisak,Zagreb,,,1591-08-27,Digitalna verzija: CroALa
sisak-epist.xml,385449,http://solr.ffzg.hr/basex/node/croala/390464,Sisak,Zagreb,,,1591-08-30,Digitalna verzija: CroALa
sisak-epist.xml,385541,http://solr.ffzg.hr/basex/node/croala/390517,Kapela,Zagreb,,,1591-08-31,Digitalna verzija: CroALa
sisak-epist.xml,385632,http://solr.ffzg.hr/basex/node/croala/390560,Sisak,Zagreb,,,1591-08-31,Digitalna verzija: CroALa
sisak-epist.xml,385724,http://solr.ffzg.hr/basex/node/croala/390610,Sisak,Zagreb,,,1591-09-02,Digitalna verzija: CroALa
sisak-epist.xml,385816,http://solr.ffzg.hr/basex/node/croala/390669,Gradec,Zagreb,,,1591-09-07,Digitalna verzija: CroALa
sisak-epist.xml,385907,http://solr.ffzg.hr/basex/node/croala/390709,Sisak,Zagreb,,,1591-09-14,Digitalna verzija: CroALa
sisak-epist.xml,385999,http://solr.ffzg.hr/basex/node/croala/390782,Kapela,Zagreb,,,1591-09-16,Digitalna verzija: CroALa
sisak-epist.xml,386090,http://solr.ffzg.hr/basex/node/croala/390819,Sisak,Zagreb,,,1591-09-21,Digitalna verzija: CroALa
sisak-epist.xml,386182,http://solr.ffzg.hr/basex/node/croala/390871,Sisak,Zagreb,,,1591-09-27,Digitalna verzija: CroALa
sisak-epist.xml,386274,http://solr.ffzg.hr/basex/node/croala/390929,Sisak,Zagreb,,,1591-10-01,Digitalna verzija: CroALa
sisak-epist.xml,386366,http://solr.ffzg.hr/basex/node/croala/390975,Sisak,Zagreb,,,1591-10-04,Digitalna verzija: CroALa
sisak-epist.xml,386458,http://solr.ffzg.hr/basex/node/croala/391022,Sisak,Zagreb,,,1591-10-07,Digitalna verzija: CroALa
sisak-epist.xml,386550,http://solr.ffzg.hr/basex/node/croala/391077,Sisak,Zagreb,,,1591-10-16,Digitalna verzija: CroALa
sisak-epist.xml,386642,http://solr.ffzg.hr/basex/node/croala/391117,Sisak,Zagreb,,,1591-10-21,Digitalna verzija: CroALa
sisak-epist.xml,386734,http://solr.ffzg.hr/basex/node/croala/391174,Sisak,Zagreb,,,1591-10-28,Digitalna verzija: CroALa
sisak-epist.xml,386826,http://solr.ffzg.hr/basex/node/croala/391217,Sisak,Zagreb,,,1591-10-30,Digitalna verzija: CroALa
sisak-epist.xml,386918,http://solr.ffzg.hr/basex/node/croala/391271,Sisak,Zagreb,,,1591-11-03,Digitalna verzija: CroALa
sisak-epist.xml,387010,http://solr.ffzg.hr/basex/node/croala/,Sisak,Zagreb,,,1591-11-05,Digitalna verzija: CroALa
sisak-epist.xml,387102,http://solr.ffzg.hr/basex/node/croala/,Sisak,Zagreb,"Mikac, Nikola",,1591-11-08,Digitalna verzija: CroALa
sisak-epist.xml,387195,http://solr.ffzg.hr/basex/node/croala/391447,Sisak,Zagreb,,,1591-11-16,Digitalna verzija: CroALa
sisak-epist.xml,387287,http://solr.ffzg.hr/basex/node/croala/391534,Sisak,Zagreb,,,1591-11-23,Digitalna verzija: CroALa
sisak-epist.xml,387379,http://solr.ffzg.hr/basex/node/croala/391594,Sisak,Zagreb,,,1591-11-25,Digitalna verzija: CroALa
sisak-epist.xml,387471,http://solr.ffzg.hr/basex/node/croala/391664,Sisak,Zagreb,,,1591-12-01,Digitalna verzija: CroALa
sisak-epist.xml,387563,http://solr.ffzg.hr/basex/node/croala/391796,Sisak,Zagreb,"Mikac, Nikola",,1591-12-04,Digitalna verzija: CroALa
sisak-epist.xml,387656,http://solr.ffzg.hr/basex/node/croala/391836,Sisak,Zagreb,"Mikac, Nikola",,1591-12-07,Digitalna verzija: CroALa
sisak-epist.xml,387749,http://solr.ffzg.hr/basex/node/croala/391882,Sisak,Zagreb,"Mikac, Nikola",,1591-12-10,Digitalna verzija: CroALa
sisak-epist.xml,387842,http://solr.ffzg.hr/basex/node/croala/391934,Sisak,Zagreb,,,1591-12-12,Digitalna verzija: CroALa
sisak-epist.xml,387934,http://solr.ffzg.hr/basex/node/croala/391983,Sisak,Zagreb,,,1591-12-27,Digitalna verzija: CroALa
sisak-epist.xml,388026,http://solr.ffzg.hr/basex/node/croala/392038,Sisak,Zagreb,,,1591-12-22,Digitalna verzija: CroALa
sisak-epist.xml,388118,http://solr.ffzg.hr/basex/node/croala/392102,Sisak,Zagreb,,,1591-12-29,Digitalna verzija: CroALa
sisak-epist.xml,388210,http://solr.ffzg.hr/basex/node/croala/392145,Sisak,Zagreb,,,1592-01-01,Digitalna verzija: CroALa
sisak-epist.xml,388302,http://solr.ffzg.hr/basex/node/croala/392215,Sisak,Zagreb,"Mikac, Nikola",,1592-01-03,Digitalna verzija: CroALa
sisak-epist.xml,388402,http://solr.ffzg.hr/basex/node/croala/392291,Sisak,Zagreb,,,1592-01-03,Digitalna verzija: CroALa
sisak-epist.xml,388494,http://solr.ffzg.hr/basex/node/croala/392343,Sisak,Zagreb,,,1592-01-04,Digitalna verzija: CroALa
sisak-epist.xml,388586,http://solr.ffzg.hr/basex/node/croala/392401,Sisak,Zagreb,,,1592-01-04,Digitalna verzija: CroALa
sisak-epist.xml,388678,http://solr.ffzg.hr/basex/node/croala/392447,Brest Pokupski,Sisak,Matthias Breztovzki,"Mikac, Nikola","Kovačić, Stjepan",1592-01-04,Digitalna verzija: CroALa
sisak-epist.xml,388777,http://solr.ffzg.hr/basex/node/croala/392495,Sisak,Zagreb,,,1592-01-07,Digitalna verzija: CroALa
sisak-epist.xml,388869,http://solr.ffzg.hr/basex/node/croala/392544,Sisak,Zagreb,,,1592-01-14,Digitalna verzija: CroALa
sisak-epist.xml,388961,http://solr.ffzg.hr/basex/node/croala/392614,Sisak,Zagreb,,,1592-02-19,Digitalna verzija: CroALa
sisak-epist.xml,389053,http://solr.ffzg.hr/basex/node/croala/392662,castra ad pontem,Zagreb,"Mikac, Nikola",,1592-04-20,Digitalna verzija: CroALa
sisak-epist.xml,389146,http://solr.ffzg.hr/basex/node/croala/392714,Pračno,Zagreb,"Mikac, Nikola",,1592-04-14,Digitalna verzija: CroALa
sisak-epist.xml,389239,http://solr.ffzg.hr/basex/node/croala/392772,Pračno,Zagreb,"Mikac, Nikola",,1592-04-19,Digitalna verzija: CroALa
sisak-epist.xml,389332,http://solr.ffzg.hr/basex/node/croala/392824,castra ad pontem,Zagreb,"Mikac, Nikola",,1592-04-20,Digitalna verzija: CroALa
sisak-epist.xml,389425,http://solr.ffzg.hr/basex/node/croala/392895,Sisak,Zagreb,,,1592-04-23,Digitalna verzija: CroALa
sisak-epist.xml,389517,http://solr.ffzg.hr/basex/node/croala/392957,castra ad pontem,Zagreb,"Mikac, Nikola",,1592-04-25,Digitalna verzija: CroALa
sisak-epist.xml,389610,http://solr.ffzg.hr/basex/node/croala/393006,castra ad pontem,Zagreb,"Mikac, Nikola",,1592-05-02,Digitalna verzija: CroALa
sisak-epist.xml,389703,http://solr.ffzg.hr/basex/node/croala/393055,castra ad pontem,Zagreb,"Mikac, Nikola",,1592-05-03,Digitalna verzija: CroALa
sisak-epist.xml,389796,http://solr.ffzg.hr/basex/node/croala/393098,castra domini bani,Zagreb,"Mikac, Nikola",,1592-05-04,Digitalna verzija: CroALa
sisak-epist.xml,389889,http://solr.ffzg.hr/basex/node/croala/393156,castra,Unknown,Servitor et frater vicebanus,"Mikac, Nikola",1592-05-05,Digitalna verzija: CroALa
sisak-epist.xml,389983,http://solr.ffzg.hr/basex/node/croala/393228,Pračno,Zagreb,Reverendarum dominationum vestrarum servus,,1592-05-05,Digitalna verzija: CroALa
sisak-epist.xml,390076,http://solr.ffzg.hr/basex/node/croala/393325,Sisak,Zagreb,,,1592-05-20,Digitalna verzija: CroALa
sisak-epist.xml,390168,http://solr.ffzg.hr/basex/node/croala/393369,Sisak,Zagreb,,,1592-06-25,Digitalna verzija: CroALa
benesa-d-epistolae-dedic.xml,410998,http://solr.ffzg.hr/basex/node/croala/411406,Lyon,Lyon,"Beneša, Damjan","Soderini, Giovanbattista",1514,Digitalna verzija: CroALa
benesa-d-epistolae-dedic.xml,411148,http://solr.ffzg.hr/basex/node/croala/411524,Lyon,Lyon,"Beneša, Damjan","Soderini, Giovanbattista",1514,Digitalna verzija: CroALa
crijev-i-epist-1510.xml,417698,http://solr.ffzg.hr/basex/node/croala/417870,Dubrovnik,Unknown,Ilija Crijević,Marin Bunić,,Digitalna verzija: CroALa
banic-j-epist-dantisc-1516-01-06.xml,463406,http://solr.ffzg.hr/basex/node/croala/463523,Augsburg,Unknown,Jakov Baničević,"Dantyszek, Jan",1516-01-06,Digitalna verzija: CroALa
vrancic-a-epist-1540.xml,464933,http://solr.ffzg.hr/basex/node/croala/465235,Alba Iulia,Unknown,"Vrančić, Antun","Bornemisza, Gregorius",1540-03-01,Digitalna verzija: CroALa
vrancic-a-epist-1540.xml,465021,http://solr.ffzg.hr/basex/node/croala/465259,Alba Iulia,Unknown,"Vrančić, Antun","Zápolya, János",1540-03-24,Digitalna verzija: CroALa
vrancic-a-epist-1540.xml,465109,http://solr.ffzg.hr/basex/node/croala/465292,Alba Iulia,Unknown,"Vrančić, Antun","Melchior, astronomus",1540-03-28,Digitalna verzija: CroALa
banic-j-epist-dantisc-1516-01-10.xml,498411,http://solr.ffzg.hr/basex/node/croala/498531,Augsburg,Unknown,Jakov Baničević,"Dantyszek, Jan",1516-01-10,Digitalna verzija: CroALa
vrancic-m-epist-1558-04-29.xml,500566,http://solr.ffzg.hr/basex/node/croala/,Vienna,Unknown,"Vrančić, Mihovil","Vrančić, Antun",1558-04-29,Digitalna verzija: CroALa
draskovic-j-epist-1839-11-12.xml,505865,http://solr.ffzg.hr/basex/node/croala/506010,Rečica,Varaždin,"Drašković, Janko","Ožegović, Metel",1839-11-12,Digitalna verzija: CroALa
vrancic-m-epist-1558-05-25.xml,507675,http://solr.ffzg.hr/basex/node/croala/,Vienna,Unknown,"Vrančić, Mihovil","Vrančić, Antun",1558-05-25,Digitalna verzija: CroALa
michet-a-cassand.xml,578303,http://solr.ffzg.hr/basex/node/croala/578543,Šibenik,Venecija,"Mihetić, Ambroz","Fedele, Cassandra",1487-01-12,Digitalna verzija: CroALa
michet-a-cassand.xml,578396,http://solr.ffzg.hr/basex/node/croala/578588,Venecija,Šibenik,"Fedele, Cassandra","Mihetić, Ambroz",1487-05-01,Digitalna verzija: CroALa
didacus-p-paul.xml,578955,http://solr.ffzg.hr/basex/node/croala/579111,Ferrara,Unknown,"Pir, Didak","Manuzio, Paolo",1563,Digitalna verzija: CroALa
vrancic-a-epist-1538.xml,584483,http://solr.ffzg.hr/basex/node/croala/585653,Alba Iulia,Unknown,"Vrančić, Antun","Musnensis, Franciscus",1538-11-13,Digitalna verzija: CroALa
vrancic-a-epist-1538.xml,584570,http://solr.ffzg.hr/basex/node/croala/585686,Thorda,Unknown,"Vrančić, Antun","Baso, Valentino",1538-10-12,Digitalna verzija: CroALa
vrancic-a-epist-1538.xml,584656,http://solr.ffzg.hr/basex/node/croala/585723,Thorda,Kesmarkium,"Vrančić, Antun","Andreis, Franjo Trankvil",1538-05-26,Digitalna verzija: CroALa
vrancic-a-epist-1538.xml,584743,http://solr.ffzg.hr/basex/node/croala/585750,Segesvarium,Unknown,"Vrančić, Antun","Jacobinus, Hieremia",1538-05-08,Digitalna verzija: CroALa
vrancic-a-epist-1538.xml,584830,http://solr.ffzg.hr/basex/node/croala/585783,Segesvarium,Cracovia,"Vrančić, Antun","Porembius, Petrus",1538-05-08,Digitalna verzija: CroALa
vrancic-a-epist-1538.xml,584916,http://solr.ffzg.hr/basex/node/croala/585810,Alba Iulia,Unknown,"Vrančić, Antun","Kalmancheh, Martinus a",1538-06-22,Digitalna verzija: CroALa
vrancic-a-epist-1538.xml,585003,http://solr.ffzg.hr/basex/node/croala/585834,Colosvarium,Kesmarkium,"Vrančić, Antun","Andreis, Franjo Trankvil",1538-08-01,Digitalna verzija: CroALa
vrancic-a-epist-1538.xml,585090,http://solr.ffzg.hr/basex/node/croala/585867,Alba Iulia,Premislia,"Vrančić, Antun","Tarło, Stanisław",1538-03-31,Digitalna verzija: CroALa
vrancic-a-epist-1538.xml,585177,http://solr.ffzg.hr/basex/node/croala/585894,Thorda,Unknown,"Vrančić, Antun","Myndzentinus, Thoma",1538-05-04,Digitalna verzija: CroALa
vrancic-a-epist-1538.xml,585264,http://solr.ffzg.hr/basex/node/croala/585924,Segesvarium,Vacium,"Vrančić, Antun","Brodarić, Stjepan",1538-02-14,Digitalna verzija: CroALa
vrancic-a-epist-1538.xml,585351,http://solr.ffzg.hr/basex/node/croala/585948,Thorda,Unknown,"Vrančić, Antun",Nikola Brgančić ili Bogančić,1538-08-10,Digitalna verzija: CroALa
vrancic-a-epist-1538.xml,585439,http://solr.ffzg.hr/basex/node/croala/585981,Segesvarium,Unknown,"Vrančić, Antun",Nikola Brgančić ili Bogančić,1538-03-06,Digitalna verzija: CroALa
vrancic-a-epist-1538.xml,585527,http://solr.ffzg.hr/basex/node/croala/586011,Alba Iulia,Transsylvania,"Vrančić, Antun","Majlád, István",1538-04-13,Digitalna verzija: CroALa
andreis-f-epist.xml,588702,http://solr.ffzg.hr/basex/node/croala/589268,Unknown,Unknown,"Andreis, Franjo Trankvil","Vadian, Joachim",1515,Digitalna verzija: CroALa
andreis-f-epist.xml,588930,http://solr.ffzg.hr/basex/node/croala/589388,Lipsia,Nürnberg,"Andreis, Franjo Trankvil","Pirckheimer, Willibald, 1470-1530.",1519-01-03,Digitalna verzija: CroALa
andreis-f-epist.xml,589132,http://solr.ffzg.hr/basex/node/croala/589489,Vienna,Unknown,"Andreis, Franjo Trankvil","Ferdinand I, Holy Roman Emperor",1541-01-15,Digitalna verzija: CroALa
begnius-s-elogium.xml,693464,http://solr.ffzg.hr/basex/node/croala/693602,Zadar,Unknown,"Kožičić Benja, Šimun","Buća, Dominik",1528-02-27,Digitalna verzija: CroALa
draskovic-j-epist-1839-05-06.xml,697570,http://solr.ffzg.hr/basex/node/croala/697691,Rečica,Varaždin,"Drašković, Janko","Ožegović, Metel",1839-05-06,Digitalna verzija: CroALa
dubrovnik-epist-1532-11-11.xml,698448,http://solr.ffzg.hr/basex/node/croala/698619,Dubrovnik,Roma,,"Clement VII, Pope",1532-11-11,Digitalna verzija: CroALa
andreis-f-epist-1538-07-11.xml,701255,http://solr.ffzg.hr/basex/node/croala/701404,Kežmarok,,"Andreis, Franjo Trankvil","Vrančić, Antun",1538-07-11,Digitalna verzija: CroALa
vrancic-m-epist-1540-03-01.xml,703841,http://solr.ffzg.hr/basex/node/croala/,Buda,Unknown,"Vrančić, Mihovil","Vrančić, Antun",1540-03-01,Digitalna verzija: CroALa
rastic-dz-c.xml,707153,http://solr.ffzg.hr/basex/node/croala/708223,Trsteno,Dubrovnik,"Rastić, Džono","Appendini, Franjo Marija","Appendini, Urban",1807-11-08,Digitalna verzija: CroALa
rastic-dz-c.xml,707254,http://solr.ffzg.hr/basex/node/croala/708240,Trsteno,Dubrovnik,"Rastić, Džono","Appendini, Franjo Marija",1807-12-01,Digitalna verzija: CroALa
rastic-dz-c.xml,707347,http://solr.ffzg.hr/basex/node/croala/730800,Unknown,Unknown,"Rastić, Džono","Ferić, Đuro",,Digitalna verzija: CroALa
rastic-dz-c.xml,707448,http://solr.ffzg.hr/basex/node/croala/731303,Unknown,Unknown,"Rastić, Džono","Appendini, Franjo Marija",,Digitalna verzija: CroALa
rastic-dz-c.xml,707549,http://solr.ffzg.hr/basex/node/croala/732032,Unknown,Unknown,"Rastić, Džono","Betondić, Jakov",,Digitalna verzija: CroALa
rastic-dz-c.xml,707650,http://solr.ffzg.hr/basex/node/croala/732687,Unknown,Unknown,"Rastić, Džono",Ad adolescentem amicum dubiae spei,,Digitalna verzija: CroALa
rastic-dz-c.xml,707751,http://solr.ffzg.hr/basex/node/croala/734055,Unknown,Unknown,"Rastić, Džono",,,Digitalna verzija: CroALa
skrl-epist-kov.xml,737216,http://solr.ffzg.hr/basex/node/croala/,Bratislava,Buda,"Škrlec Lomnički, Nikola","Kovačić, Martin Juraj",1791-02-06,Digitalna verzija: CroALa
skrl-epist-kov.xml,737309,http://solr.ffzg.hr/basex/node/croala/,Jakovlje,Buda,"Škrlec Lomnički, Nikola","Kovačić, Martin Juraj",1792-09-08,Digitalna verzija: CroALa
skrl-epist-kov.xml,737402,http://solr.ffzg.hr/basex/node/croala/,Jakovlje,Unknown,"Škrlec Lomnički, Nikola","Kovačić, Martin Juraj",,Digitalna verzija: CroALa
skrl-epist-kov.xml,737496,http://solr.ffzg.hr/basex/node/croala/,Zagreb,Unknown,"Škrlec Lomnički, Nikola","Kovačić, Martin Juraj",1792-12-08,Digitalna verzija: CroALa
skrl-epist-kov.xml,737590,http://solr.ffzg.hr/basex/node/croala/,Zagreb,Buda,"Škrlec Lomnički, Nikola","Kovačić, Martin Juraj",1793-02-22,Digitalna verzija: CroALa
skrl-epist-kov.xml,737683,http://solr.ffzg.hr/basex/node/croala/,Zagreb,Buda,"Škrlec Lomnički, Nikola","Kovačić, Martin Juraj",1793-03-03,Digitalna verzija: CroALa
skrl-epist-kov.xml,737776,http://solr.ffzg.hr/basex/node/croala/,Zagreb,Buda,"Škrlec Lomnički, Nikola","Kovačić, Martin Juraj",1793-04-07,Digitalna verzija: CroALa
skrl-epist-kov.xml,737869,http://solr.ffzg.hr/basex/node/croala/,Zagreb,Buda,"Škrlec Lomnički, Nikola","Kovačić, Martin Juraj",1793-05-19,Digitalna verzija: CroALa
skrl-epist-kov.xml,737962,http://solr.ffzg.hr/basex/node/croala/,Zagreb,Buda,"Škrlec Lomnički, Nikola","Kovačić, Martin Juraj",1794-01-16,Digitalna verzija: CroALa
skrl-epist-kov.xml,738055,http://solr.ffzg.hr/basex/node/croala/,Jakovlje,Unknown,"Škrlec Lomnički, Nikola","Kovačić, Martin Juraj",1794-06-23,Digitalna verzija: CroALa
skrl-epist-kov.xml,738149,http://solr.ffzg.hr/basex/node/croala/,Jakovlje,Unknown,"Škrlec Lomnički, Nikola","Kovačić, Martin Juraj",1794-06-30,Digitalna verzija: CroALa
skrl-epist-kov.xml,738243,http://solr.ffzg.hr/basex/node/croala/,Zagreb,Unknown,"Škrlec Lomnički, Nikola","Kovačić, Martin Juraj",1795-01-03,Digitalna verzija: CroALa
skrl-epist-kov.xml,738337,http://solr.ffzg.hr/basex/node/croala/,Zagreb,Unknown,"Škrlec Lomnički, Nikola","Kovačić, Martin Juraj",1795-12-24,Digitalna verzija: CroALa
skrl-epist-kov.xml,738431,http://solr.ffzg.hr/basex/node/croala/,Jakovlje,Unknown,"Škrlec Lomnički, Nikola","Kovačić, Martin Juraj",1795-05-19,Digitalna verzija: CroALa
skrl-epist-kov.xml,738525,http://solr.ffzg.hr/basex/node/croala/,Jakovlje,Unknown,"Škrlec Lomnički, Nikola","Kovačić, Martin Juraj",1795-06-24,Digitalna verzija: CroALa
vrancic-m-epist-1558-12-27.xml,754850,http://solr.ffzg.hr/basex/node/croala/,Šibenik,Eger,"Vrančić, Mihovil","Vrančić, Antun",1558-12-27,Digitalna verzija: CroALa
andreis-f-epist-bonzagno-1529.xml,755459,http://solr.ffzg.hr/basex/node/croala/755590,Constantinopolis,,"Andreis, Franjo Trankvil","Bonzagno, Giovanni",1529-02-15,Digitalna verzija: CroALa
ian-pan-epist.xml,816957,http://solr.ffzg.hr/basex/node/croala/817947,Montagnana,Unknown,Jan Panonije,Marcus Aurelius,1456-12-01,Digitalna verzija: CroALa
ian-pan-epist.xml,817068,http://solr.ffzg.hr/basex/node/croala/817986,Padova,Unknown,Jan Panonije,Marcus Aurelius,1457-02-28,Digitalna verzija: CroALa
ian-pan-epist.xml,817219,http://solr.ffzg.hr/basex/node/croala/818120,Unknown,Unknown,Jan Panonije,Galeotto Marzio,,Digitalna verzija: CroALa
ian-pan-epist.xml,817318,http://solr.ffzg.hr/basex/node/croala/818185,[Pécs],[Rome],Jan Panonije,"Pius III, Pope",,Digitalna verzija: CroALa
ian-pan-epist.xml,817415,http://solr.ffzg.hr/basex/node/croala/818236,Unknown,Unknown,Jan Panonije,"Vitez od Sredne, Ivan","Gregorius comes de Blaga, Episcopus",,Digitalna verzija: CroALa
ian-pan-epist.xml,817521,http://solr.ffzg.hr/basex/node/croala/818272,Unknown,Unknown,Jan Panonije,d. Senensis,,Digitalna verzija: CroALa
ian-pan-epist.xml,817619,http://solr.ffzg.hr/basex/node/croala/818308,Buda,Unknown,Jan Panonije,cardinalis S. Angeli,1462-04-20,Digitalna verzija: CroALa
ian-pan-epist.xml,817715,http://solr.ffzg.hr/basex/node/croala/818344,Unknown,Unknown,Jan Panonije,cardinalis papiensis,,Digitalna verzija: CroALa
ian-pan-epist.xml,817813,http://solr.ffzg.hr/basex/node/croala/818395,Pécs,Unknown,Jan Panonije,"Oliva, Alessandro",1462-09-28,Digitalna verzija: CroALa
crijev-i-epist-1506.xml,820157,http://solr.ffzg.hr/basex/node/croala/820318,Dubrovnik,Venezia,Ilija Crijević,Marin Bunić,1506-08-11,Digitalna verzija: CroALa
andreis-f-epist-nadasd.xml,825860,http://solr.ffzg.hr/basex/node/croala/827991,Venetia,Unknown,"Andreis, Franjo Trankvil","Nádasdy, Tamás",1547-03-26,Digitalna verzija: CroALa
andreis-f-epist-nadasd.xml,825965,http://solr.ffzg.hr/basex/node/croala/828071,Buda,Unknown,"Andreis, Franjo Trankvil","Nádasdy, Tamás",1532-03-20,Digitalna verzija: CroALa
andreis-f-epist-nadasd.xml,826070,http://solr.ffzg.hr/basex/node/croala/828134,Vienna,Unknown,"Andreis, Franjo Trankvil","Nádasdy, Tamás",1541-01-15,Digitalna verzija: CroALa
andreis-f-epist-nadasd.xml,826167,http://solr.ffzg.hr/basex/node/croala/828221,Vienna,Unknown,"Andreis, Franjo Trankvil","Nádasdy, Tamás",1541-03-17,Digitalna verzija: CroALa
andreis-f-epist-nadasd.xml,826264,http://solr.ffzg.hr/basex/node/croala/828287,Vienna,Unknown,"Andreis, Franjo Trankvil","Nádasdy, Tamás",1541-12-04,Digitalna verzija: CroALa
andreis-f-epist-nadasd.xml,826361,http://solr.ffzg.hr/basex/node/croala/828391,Venetiae,Vienna,"Andreis, Franjo Trankvil","Nádasdy, Tamás",1545-11-30,Digitalna verzija: CroALa
andreis-f-epist-nadasd.xml,826457,http://solr.ffzg.hr/basex/node/croala/828525,Venetiae,Vienna,"Andreis, Franjo Trankvil","Nádasdy, Tamás",1545-12-10,Digitalna verzija: CroALa
andreis-f-epist-nadasd.xml,826553,http://solr.ffzg.hr/basex/node/croala/828623,Unknown,Unknown,"Andreis, Franjo Trankvil","Nádasdy, Tamás",,Digitalna verzija: CroALa
andreis-f-epist-nadasd.xml,826651,http://solr.ffzg.hr/basex/node/croala/828697,Venetiae,Unknown,"Andreis, Franjo Trankvil","Nádasdy, Tamás",1547-04-04,Digitalna verzija: CroALa
andreis-f-epist-nadasd.xml,826756,http://solr.ffzg.hr/basex/node/croala/828797,Tragurium,Unknown,"Andreis, Franjo Trankvil","Nádasdy, Tamás",1549-11-01,Digitalna verzija: CroALa
andreis-f-epist-nadasd.xml,826853,http://solr.ffzg.hr/basex/node/croala/828901,Arba,Unknown,"Andreis, Franjo Trankvil","Nádasdy, Tamás",1550-03-11,Digitalna verzija: CroALa
andreis-f-epist-nadasd.xml,826966,http://solr.ffzg.hr/basex/node/croala/829002,Sarvar,Unknown,"Andreis, Franjo Trankvil","Nádasdy, Tamás",1551-12-06,Digitalna verzija: CroALa
andreis-f-epist-nadasd.xml,827071,http://solr.ffzg.hr/basex/node/croala/829095,Venetiae,Hungaria,"Andreis, Franjo Trankvil","Nádasdy, Tamás",1551-01-16,Digitalna verzija: CroALa
andreis-f-epist-nadasd.xml,827167,http://solr.ffzg.hr/basex/node/croala/829219,Unknown,Hungaria,"Andreis, Franjo Trankvil","Nádasdy, Tamás",1552-05-22,Digitalna verzija: CroALa
andreis-f-epist-nadasd.xml,827280,http://solr.ffzg.hr/basex/node/croala/829326,Bucharis,Sarvar,"Andreis, Franjo Trankvil","Perneszith, György",1553-11-05,Digitalna verzija: CroALa
andreis-f-epist-nadasd.xml,827375,http://solr.ffzg.hr/basex/node/croala/829413,Sarvar,Unknown,"Andreis, Franjo Trankvil","Nádasdy, Tamás",1553-04-28,Digitalna verzija: CroALa
andreis-f-epist-nadasd.xml,827472,http://solr.ffzg.hr/basex/node/croala/829475,Tragurium,Unknown,"Andreis, Franjo Trankvil","Nádasdy, Tamás",1553-11-29,Digitalna verzija: CroALa
andreis-f-epist-nadasd.xml,827569,http://solr.ffzg.hr/basex/node/croala/829611,Sarvar,Unknown,"Andreis, Franjo Trankvil","Nádasdy, Tamás",1554-07-12,Digitalna verzija: CroALa
andreis-f-epist-nadasd.xml,827666,http://solr.ffzg.hr/basex/node/croala/829670,Tragurium,Unknown,"Andreis, Franjo Trankvil","Nádasdy, Tamás",1554-04-01,Digitalna verzija: CroALa
andreis-f-epist-nadasd.xml,827763,http://solr.ffzg.hr/basex/node/croala/829779,Venetiae,Hungaria,"Andreis, Franjo Trankvil","Nádasdy, Tamás",1555-05-24,Digitalna verzija: CroALa
andreis-f-epist-nadasd.xml,827859,http://solr.ffzg.hr/basex/node/croala/829895,Tragurium,Hungaria,"Andreis, Franjo Trankvil","Nádasdy, Tamás",1555-06-12,Digitalna verzija: CroALa
brlic-ia-epist.xml,837820,http://solr.ffzg.hr/basex/node/croala/837983,Slavonski Brod,Vinkovci,"Brlić, Ignjat Alojzije","Brlić, Andrija Torkvat",1837-10-22,Digitalna verzija: CroALa
vrancic-a-epist-1542-01-10.xml,841473,http://solr.ffzg.hr/basex/node/croala/841592,Cracovia,Cracovia,"Vrančić, Antun","Ruiz de Moros, Pedro",1542-01-10,Digitalna verzija: CroALa
andreis-f-polonos.xml,842104,http://solr.ffzg.hr/basex/node/croala/842954,Cracovia,Unknown,"Andreis, Franjo Trankvil","Górka, Andrzej",1545-05-02,Digitalna verzija: CroALa
andreis-f-polonos.xml,842230,http://solr.ffzg.hr/basex/node/croala/842823,Cracovia,Unknown,"Górski, Jakub, 1525-1585","Górka, Stanisław, 1538-1592",1584,Digitalna verzija: CroALa
gaj-lj-epist-1833-02-14.xml,844139,http://solr.ffzg.hr/basex/node/croala/844260,Wien,Zagreb,"Gaj, Ljudevit","Vlašić, Franjo",1833-02-14,Digitalna verzija: CroALa
andreis-f-epist-1550-02-25.xml,846905,http://solr.ffzg.hr/basex/node/croala/847057,Tragurium,,"Andreis, Franjo Trankvil","Vrančić, Antun",1550-02-25,Digitalna verzija: CroALa
bucinjelic-m-epist.xml,848914,http://solr.ffzg.hr/basex/node/croala/849115,Dubrovnik,Unknown,"Bučinjelić, Miho","Plania, Gerardus",1524-06-29,Digitalna verzija: CroALa
berislavic-p-epist-1519-09-05.xml,878446,http://solr.ffzg.hr/basex/node/croala/878651,Zagreb,Rome,"Berislavić, Petar","Leo X, Pope, 1475-1521",1519-09-05,Digitalna verzija: CroALa
severitan-ip-solimaidos.xml,879767,http://solr.ffzg.hr/basex/node/croala/880017,Unknown,Unknown,"Morosini, Luka","Sacratus, Hieronymus",,,Digitalna verzija: CroALa
severitan-ip-solimaidos.xml,879861,http://solr.ffzg.hr/basex/node/croala/880511,Unknown,Unknown,"Severitan, Ivan Polikarp",Guidobaldo II Della Rovere,,,Digitalna verzija: CroALa
andreis-f-epist-1569-10-19.xml,941574,http://solr.ffzg.hr/basex/node/croala/941718,Posonium,,"Andreis, Franjo Trankvil","Vrančić, Antun",1569-10-19,Digitalna verzija: CroALa
skrl-2.xml,942673,http://solr.ffzg.hr/basex/node/croala/,Jakovlje,Unknown,"Škrlec Lomnički, Nikola","Kovačić, Martin Juraj",1794-08-13,Digitalna verzija: CroALa
dubrovnik-epist-1525-03-25.xml,974029,http://solr.ffzg.hr/basex/node/croala/974184,Dubrovnik,Roma,,"Clement VII, Pope",1525-03-25,Digitalna verzija: CroALa
banic-j-epist-1511-04-29.xml,978079,http://solr.ffzg.hr/basex/node/croala/978197,Tubinga,Unknown,Jakov Baničević,"Barangier, Louis",1511-04-29,Digitalna verzija: CroALa
draskovic-j-epist-1556.xml,979096,http://solr.ffzg.hr/basex/node/croala/979261,Wien,Unknown,"Drašković, Juraj","Horvat, Marko",1556-08-14,Digitalna verzija: CroALa
andreis-f-epist-1538-10-03.xml,1047682,http://solr.ffzg.hr/basex/node/croala/1047826,Naghfalw,,"Andreis, Franjo Trankvil","Vrančić, Antun",1538-10-03,Digitalna verzija: CroALa
boskovic-r-dsld.xml,1048281,http://solr.ffzg.hr/basex/node/croala/1048415,Unknown,Unknown,"Bošković, Ruđer Josip","Louis XVI, King of France, 1754-1793",,Digitalna verzija: CroALa
bulic-f-epist.xml,1079098,http://solr.ffzg.hr/basex/node/croala/1079224,Salona,Wien,"Bulić, don Frane","Kubitschek, Joseph Wilhelm",1913-06-08,Digitalna verzija: CroALa
vrancic-m-epist-1558-11-06.xml,1105573,http://solr.ffzg.hr/basex/node/croala/,Šibenik,Unknown,"Vrančić, Mihovil","Vrančić, Antun",1558-11-06,Digitalna verzija: CroALa
vrancic-a-epist-1573-05-03.xml,1106573,http://solr.ffzg.hr/basex/node/croala/1106688,Galgocz,Unknown,"Vrančić, Antun","Vrančić, Kazimir",1573-05-03,Digitalna verzija: CroALa
august-g-epist.xml,1112584,http://solr.ffzg.hr/basex/node/croala/1112751,Ferraria,Unknown,Juraj Augustin Zagrepčanin,Nicolaus Ostphi,1454-07-08,Digitalna verzija: CroALa
didacus-p-slatarichio.xml,1404377,http://solr.ffzg.hr/basex/node/croala/1404494,Unknown,Unknown,"Pir, Didak","Menčetić, Miho",1583,Digitalna verzija: CroALa
benesa-d-epistulae.xml,1483178,http://solr.ffzg.hr/basex/node/croala/1483622,Dubrovnik,Unknown,"Beneša, Damjan",Ferdinand I,1534-06-16,Digitalna verzija: CroALa
benesa-d-epistulae.xml,1483323,http://solr.ffzg.hr/basex/node/croala/1483699,Dubrovnik,Unknown,"Beneša, Damjan",Franjo I,1534-06-16,Digitalna verzija: CroALa
benesa-d-epistulae.xml,1483484,http://solr.ffzg.hr/basex/node/croala/1483799,Dubrovnik,Unknown,"Beneša, Damjan",Charles V,1534-06-16,Digitalna verzija: CroALa
vrancic-m-epist-1559-02-09.xml,1487243,http://solr.ffzg.hr/basex/node/croala/,Šibenik,Eger,"Vrančić, Mihovil","Vrančić, Antun",1559-02-09,Digitalna verzija: CroALa
vrancic-m-epist-1557-12-22.xml,1488299,http://solr.ffzg.hr/basex/node/croala/,Vienna,Unknown,"Vrančić, Mihovil","Chiacchius (Csaky), Stephanus",1557-12-22,Digitalna verzija: CroALa
vrancic-a-epist-1557-12-24.xml,1488729,http://solr.ffzg.hr/basex/node/croala/1488845,Vienna,Pécs,"Vrančić, Antun","Drašković, Juraj II",1557-12-24,Digitalna verzija: CroALa
djurdjev-i-melit.xml,1494643,http://solr.ffzg.hr/basex/node/croala/1494762,Mljet,Territorial Abbey of Monte Cassino,,"Đurđević, Ignjat","Salines, Januarius",,Digitalna verzija: CroALa
galac-d-epist-1845-10-06.xml,1496158,http://solr.ffzg.hr/basex/node/croala/1496251,,,,,1845-10-06,Digitalna verzija: CroALa
baricev-aa-epist.xml,1508857,http://solr.ffzg.hr/basex/node/croala/1509516,Zagreb,Unknown,"Baričević, Adam Alojzije","Škrlec Lomnički, Nikola",1780-11-01,Digitalna verzija: CroALa
baricev-aa-epist.xml,1508959,http://solr.ffzg.hr/basex/node/croala/1509618,Zagreb,Unknown,"Baričević, Adam Alojzije","Škrlec Lomnički, Nikola",1780-12-01,Digitalna verzija: CroALa
baricev-aa-epist.xml,1509053,http://solr.ffzg.hr/basex/node/croala/1509683,Zagreb,Unknown,"Baričević, Adam Alojzije","Škrlec Lomnički, Nikola",1782-06-19,Digitalna verzija: CroALa
baricev-aa-epist.xml,1509147,http://solr.ffzg.hr/basex/node/croala/1509810,Bratislava,Zagreb,"Škrlec Lomnički, Nikola","Baričević, Adam Alojzije",1782-06-24,Digitalna verzija: CroALa
baricev-aa-epist.xml,1509240,http://solr.ffzg.hr/basex/node/croala/1509953,Zagreb,Bratislava,"Baričević, Adam Alojzije","Škrlec Lomnički, Nikola",1784-05-23,Digitalna verzija: CroALa
baricev-aa-epist.xml,1509333,http://solr.ffzg.hr/basex/node/croala/1510096,Zagreb,Unknown,"Baričević, Adam Alojzije","Škrlec Lomnički, Nikola",1784-07-07,Digitalna verzija: CroALa
banic-j-epist-1524-03-02.xml,1510486,http://solr.ffzg.hr/basex/node/croala/1510606,Milano,Unknown,Jakov Baničević,"Pirckheimer, Willibald",1524-03-02,Digitalna verzija: CroALa
banic-j-epist-1513.xml,1579327,http://solr.ffzg.hr/basex/node/croala/1580396,Landau,Unknown,Jakov Baničević,"Margaretha, van Oostenrijk",1513-02-16,Digitalna verzija: CroALa
banic-j-epist-1513.xml,1579421,http://solr.ffzg.hr/basex/node/croala/1580461,Augsburg,Unknown,Jakov Baničević,"Margaretha, van Oostenrijk",1513-06-04,Digitalna verzija: CroALa
banic-j-epist-1513.xml,1579515,http://solr.ffzg.hr/basex/node/croala/1580554,Landsberg,Unknown,Jakov Baničević,"Margaretha, van Oostenrijk",1513-05-01,Digitalna verzija: CroALa
banic-j-epist-1513.xml,1579609,http://solr.ffzg.hr/basex/node/croala/1580606,Augusta,Unknown,Jakov Baničević,"Margaretha, van Oostenrijk",1513-04-15,Digitalna verzija: CroALa
banic-j-epist-1513.xml,1579703,http://solr.ffzg.hr/basex/node/croala/1580686,Augusta,Unknown,Jakov Baničević,"Margaretha, van Oostenrijk",1513-11-26,Digitalna verzija: CroALa
banic-j-epist-1513.xml,1579797,http://solr.ffzg.hr/basex/node/croala/1580750,Landau,Unknown,Jakov Baničević,"Margaretha, van Oostenrijk",1513-02-21,Digitalna verzija: CroALa
banic-j-epist-1513.xml,1579891,http://solr.ffzg.hr/basex/node/croala/1580821,Hinstat,Unknown,Jakov Baničević,"Margaretha, van Oostenrijk",1513-03-02,Digitalna verzija: CroALa
banic-j-epist-1513.xml,1579984,http://solr.ffzg.hr/basex/node/croala/1580889,Augsburg,Unknown,Jakov Baničević,"Margaretha, van Oostenrijk",1513-04-27,Digitalna verzija: CroALa
banic-j-epist-1513.xml,1580078,http://solr.ffzg.hr/basex/node/croala/1580951,Augsburg,Unknown,Jakov Baničević,"Margaretha, van Oostenrijk",1513-04-04,Digitalna verzija: CroALa
banic-j-epist-1513.xml,1580172,http://solr.ffzg.hr/basex/node/croala/1581049,Augsburg,Unknown,Jakov Baničević,"Margaretha, van Oostenrijk",1513-05-30,Digitalna verzija: CroALa
banic-j-epist-1513.xml,1580266,http://solr.ffzg.hr/basex/node/croala/1581123,Wissembourg,Unknown,Jakov Baničević,"Margaretha, van Oostenrijk",1513-02-03,Digitalna verzija: CroALa
grangya-p-epist.xml,1584913,http://solr.ffzg.hr/basex/node/croala/1585159,Zagreb,Padova,"Grangya, Petar","Grangya, Georgius",1535-03-29,Digitalna verzija: CroALa
grangya-p-epist.xml,1585005,http://solr.ffzg.hr/basex/node/croala/1585219,Zagreb,Padova,"Grangya, Petar","Grangya, Georgius","Bakocz, Thoma",1535-04-17,Digitalna verzija: CroALa
vrancic-a-epist-1543-05-16.xml,1587508,http://solr.ffzg.hr/basex/node/croala/1587626,Cracovia,Unknown,"Vrančić, Antun","Murany, Paulus",1543-05-16,Digitalna verzija: CroALa
difnic-g-epist-alex-vi.xml,1603751,http://solr.ffzg.hr/basex/node/croala/1603897,Lika,Roma,"Divnić, Juraj","Alexander VI, Pope, 1431-1503",1493-09-27,Digitalna verzija: CroALa
modr-n-navic.xml,1769829,http://solr.ffzg.hr/basex/node/croala/1769968,Unknown,Unknown,"Várdai, István",Nikola Modruški,1463-11,Digitalna verzija: CroALa
banic-j-epist-1515-01-17.xml,1772004,http://solr.ffzg.hr/basex/node/croala/1772120,Innsbruck,Unknown,Jakov Baničević,"Margaretha, van Oostenrijk",1515-01-17,Digitalna verzija: CroALa
vrancic-m-epist-1558-10-01.xml,1799985,http://solr.ffzg.hr/basex/node/croala/,Šibenik,Unknown,"Vrančić, Mihovil","Vrančić, Antun",1558-10-01,Digitalna verzija: CroALa
andreis-f-epist-lasc.xml,1800534,http://solr.ffzg.hr/basex/node/croala/1800662,Constantinopolis,,"Andreis, Franjo Trankvil","Łaski, Jan",1530-06-17,Digitalna verzija: CroALa
marul-mar-epist-adr.xml,1804126,http://solr.ffzg.hr/basex/node/croala/1804359,Unknown,Unknown,Marko Marulić,"Buća, Dominik",1522-04-03,Digitalna verzija: CroALa
marul-mar-epist-adr.xml,1804221,http://solr.ffzg.hr/basex/node/croala/1804379,Unknown,Roma,Marko Marulić,"Adrian VI, Pope",1522,Digitalna verzija: CroALa
sobota-i-epist-vallar-5.xml,1807346,http://solr.ffzg.hr/basex/node/croala/1807848,Trogir,Unknown,"Sobota, Ivan","Vallaresso, Maffeo",,Digitalna verzija: CroALa
sobota-i-epist-vallar-5.xml,1807442,http://solr.ffzg.hr/basex/node/croala/1807883,Trogir,Padova,"Sobota, Ivan","Vallaresso, Maffeo",1438-08-31,Digitalna verzija: CroALa
sobota-i-epist-vallar-5.xml,1807536,http://solr.ffzg.hr/basex/node/croala/1807921,Trogir,Padova,"Sobota, Ivan","Vallaresso, Maffeo",,Digitalna verzija: CroALa
sobota-i-epist-vallar-5.xml,1807631,http://solr.ffzg.hr/basex/node/croala/1807947,Trogir,Padova,"Sobota, Ivan","Vallaresso, Maffeo",,Digitalna verzija: CroALa
sobota-i-epist-vallar-5.xml,1807726,http://solr.ffzg.hr/basex/node/croala/1807965,Venezia,Unknown,"Sobota, Ivan","Vallaresso, Maffeo",,Digitalna verzija: CroALa
skerle-n-epist-salag.xml,1843081,http://solr.ffzg.hr/basex/node/croala/1843410,Unknown,Pécs,"Škrlec Lomnički, Nikola","Salagius, Stephanus",,Digitalna verzija: CroALa
skerle-n-epist-salag.xml,1843183,http://solr.ffzg.hr/basex/node/croala/1843595,Pécs,Unknown,"Salagius, Stephanus","Škrlec Lomnički, Nikola",1778-09-09,Digitalna verzija: CroALa
skerle-n-epist-salag.xml,1843283,http://solr.ffzg.hr/basex/node/croala/1843913,Unknown,Pécs,"Škrlec Lomnički, Nikola","Salagius, Stephanus",,Digitalna verzija: CroALa
andreis-f-epist-1571-06-30.xml,1844507,http://solr.ffzg.hr/basex/node/croala/1844651,Posonium,,"Andreis, Franjo Trankvil","Vrančić, Antun",1571-06-30,Digitalna verzija: CroALa
vrancic-a-epist-1567-04-05.xml,1845538,http://solr.ffzg.hr/basex/node/croala/1845679,Prag,Roma,"Vrančić, Antun","Commendone, Giovanni Francesco",1567-04-05,Digitalna verzija: CroALa
vrancic-f-carm-epist.xml,1850796,http://solr.ffzg.hr/basex/node/croala/,Posonium,Unknown,"Vrančić, Faust","Vrančić, Antun",1561-04-29,Digitalna verzija: CroALa
mladinic-s-vita.xml,1851602,http://solr.ffzg.hr/basex/node/croala/1851759,Unknown,Unknown,"Cipiko, Petar","Mladinić, Sebastijan",1590,Digitalna verzija: CroALa
vrancic-a-epist-1543-07-20.xml,1921196,http://solr.ffzg.hr/basex/node/croala/1921312,Alba Iulia,Padua,"Vrančić, Antun","Millaversi, Magdalena",1543-07-20,Digitalna verzija: CroALa
banic-j-epist-hel.xml,2076746,http://solr.ffzg.hr/basex/node/croala/2076874,Augsburg,Unknown,Jakov Baničević,"Ponchier, Étienne",1510-05-01,Digitalna verzija: CroALa
krcelic-b-epist-1735.xml,2087353,http://solr.ffzg.hr/basex/node/croala/2088664,Sancto Vitale apud Bononiam,Unknown,"Krčelić, Baltazar Adam","Mesić, Matija Nikola",1735-05-17,Digitalna verzija: CroALa
krcelic-b-epist-1735.xml,2087520,http://solr.ffzg.hr/basex/node/croala/2088803,Bologna,Unknown,"Krčelić, Baltazar Adam","Mesić, Matija Nikola",1736-03-13,Digitalna verzija: CroALa
krcelic-b-epist-1735.xml,2087657,http://solr.ffzg.hr/basex/node/croala/2088922,Bologna,Unknown,"Krčelić, Baltazar Adam","Mesić, Matija Nikola",1736-04-09,Digitalna verzija: CroALa
krcelic-b-epist-1735.xml,2087862,http://solr.ffzg.hr/basex/node/croala/2089102,Bologna,Unknown,"Krčelić, Baltazar Adam","Mesić, Matija Nikola",1736-05-29,Digitalna verzija: CroALa
krcelic-b-epist-1735.xml,2088108,http://solr.ffzg.hr/basex/node/croala/2089308,Bologna,Unknown,"Krčelić, Baltazar Adam","Mesić, Matija Nikola",1736-06-19,Digitalna verzija: CroALa
krcelic-b-epist-1735.xml,2088281,http://solr.ffzg.hr/basex/node/croala/2089396,Bologna,Italy,Israel,Unknown,"Krčelić, Baltazar Adam","Mesić, Matija Nikola",1736-08-04,Digitalna verzija: CroALa
krcelic-b-epist-1735.xml,2088432,http://solr.ffzg.hr/basex/node/croala/2089565,Bologna,Unknown,"Krčelić, Baltazar Adam","Mesić, Matija Nikola",1736-10-02,Digitalna verzija: CroALa
brodaric-s-epistulae.xml,2092610,http://solr.ffzg.hr/basex/node/croala/2097393,Kreštelovac,Zagreb,"Brodarić, Stjepan","Kasu, Albert",1505,Digitalna verzija: CroALa
brodaric-s-epistulae.xml,2092704,http://solr.ffzg.hr/basex/node/croala/2097427,Buda,Zagreb,"Brodarić, Stjepan","Kasu, Albert",1507,Digitalna verzija: CroALa
brodaric-s-epistulae.xml,2092798,http://solr.ffzg.hr/basex/node/croala/2097468,Székesfehérvár,Unknown,"Brodarić, Stjepan",Lodovico Taddeo dei Lardi (de Ferraria),1508-06-05,Digitalna verzija: CroALa
brodaric-s-epistulae.xml,2092893,http://solr.ffzg.hr/basex/node/croala/2097550,Buda,Unknown,"Brodarić, Stjepan",Lodovico Taddeo dei Lardi (de Ferraria),1508-06-09,Digitalna verzija: CroALa
brodaric-s-epistulae.xml,2092988,http://solr.ffzg.hr/basex/node/croala/2097646,Buda,Košice,"Brodarić, Stjepan",cives civitatis Cassoviensis,1512-08-29,Digitalna verzija: CroALa
brodaric-s-epistulae.xml,2093082,http://solr.ffzg.hr/basex/node/croala/2097693,Buda,Venice,"Brodarić, Stjepan","Manuzio, Aldo, 1450-1515",1512-09-15,Digitalna verzija: CroALa
brodaric-s-epistulae.xml,2093177,http://solr.ffzg.hr/basex/node/croala/2097759,Pečuh,Košice,"Brodarić, Stjepan",cives civitatis Cassoviensis,1515-08-20,Digitalna verzija: CroALa
brodaric-s-epistulae.xml,2093271,http://solr.ffzg.hr/basex/node/croala/2097832,Unknown,Unknown,"Brodarić, Stjepan","Cospi, Angelo Bartolomeo",,Digitalna verzija: CroALa
brodaric-s-epistulae.xml,2093369,http://solr.ffzg.hr/basex/node/croala/2097885,Buda,Unknown,"Louis, II, King of Bohemia and Hungary, 1506-1526","Brodarić, Stjepan",1517-03-25,Digitalna verzija: CroALa
brodaric-s-epistulae.xml,2093465,http://solr.ffzg.hr/basex/node/croala/2097983,Rome,Buda,"Brodarić, Stjepan","Louis, II, King of Bohemia and Hungary, 1506-1526",1522-09-01,Digitalna verzija: CroALa
brodaric-s-epistulae.xml,2093560,http://solr.ffzg.hr/basex/node/croala/2098090,[Vilnius],Rome,"Sigismund I, King of Poland, 1467-1548","Brodarić, Stjepan",1522-10-22,Digitalna verzija: CroALa
brodaric-s-epistulae.xml,2093655,http://solr.ffzg.hr/basex/node/croala/2098134,Rome,Unknown,"Brodarić, Stjepan","Sigismund I, King of Poland, 1467-1548",1523-01-01,Digitalna verzija: CroALa
brodaric-s-epistulae.xml,2093751,http://solr.ffzg.hr/basex/node/croala/2098221,Rome,Unknown,"Brodarić, Stjepan","Sigismund I, King of Poland, 1467-1548",1523-01-15,Digitalna verzija: CroALa
brodaric-s-epistulae.xml,2093847,http://solr.ffzg.hr/basex/node/croala/2098278,Rome,Unknown,"Brodarić, Stjepan","Sigismund I, King of Poland, 1467-1548",1523-01-26,Digitalna verzija: CroALa
brodaric-s-epistulae.xml,2093943,http://solr.ffzg.hr/basex/node/croala/2098308,[Kraków],[Rome],"Sigismund I, King of Poland, 1467-1548","Brodarić, Stjepan",,Digitalna verzija: CroALa
brodaric-s-epistulae.xml,2094039,http://solr.ffzg.hr/basex/node/croala/2098345,Kraków,[Rome],"Krzycki, Andrzej, 1482-1537","Brodarić, Stjepan",1523-02-18,Digitalna verzija: CroALa
brodaric-s-epistulae.xml,2094134,http://solr.ffzg.hr/basex/node/croala/2098408,[Kraków],[Rome],"Sigismund I, King of Poland, 1467-1548","Brodarić, Stjepan",1523-05-15,Digitalna verzija: CroALa
brodaric-s-epistulae.xml,2094229,http://solr.ffzg.hr/basex/node/croala/2098447,Buda,[Rome],"Louis, II, King of Bohemia and Hungary, 1506-1526","Brodarić, Stjepan",1523-06-01,Digitalna verzija: CroALa
brodaric-s-epistulae.xml,2094324,http://solr.ffzg.hr/basex/node/croala/2098510,Rome,Unknown,"Brodarić, Stjepan","Sigismund I, King of Poland, 1467-1548",1523-06-10,Digitalna verzija: CroALa
brodaric-s-epistulae.xml,2094420,http://solr.ffzg.hr/basex/node/croala/2098606,[Kraków],[Rome],"Sigismund I, King of Poland, 1467-1548","Brodarić, Stjepan",,Digitalna verzija: CroALa
brodaric-s-epistulae.xml,2094516,http://solr.ffzg.hr/basex/node/croala/2098651,Rome,Unknown,"Brodarić, Stjepan","Várday, Ferenc",1523-08-18,Digitalna verzija: CroALa
brodaric-s-epistulae.xml,2094611,http://solr.ffzg.hr/basex/node/croala/2098714,[Kraków],[Rome],"Sigismund I, King of Poland, 1467-1548","Brodarić, Stjepan",,Digitalna verzija: CroALa
brodaric-s-epistulae.xml,2094707,http://solr.ffzg.hr/basex/node/croala/2098744,Rome,[Kraków],"Brodarić, Stjepan","Sigismund I, King of Poland, 1467-1548",1523-10-22,Digitalna verzija: CroALa
brodaric-s-epistulae.xml,2094802,http://solr.ffzg.hr/basex/node/croala/2098804,Rome,Unknown,"Brodarić, Stjepan","Várday, Ferenc",1523-11-16,Digitalna verzija: CroALa
brodaric-s-epistulae.xml,2094897,http://solr.ffzg.hr/basex/node/croala/2098921,Rome,[Kraków],"Brodarić, Stjepan","Sigismund I, King of Poland, 1467-1548",1523-12-11,Digitalna verzija: CroALa
brodaric-s-epistulae.xml,2094992,http://solr.ffzg.hr/basex/node/croala/2098963,Rome,[Kraków],"Brodarić, Stjepan","Sigismund I, King of Poland, 1467-1548",1523-12-15,Digitalna verzija: CroALa
brodaric-s-epistulae.xml,2095087,http://solr.ffzg.hr/basex/node/croala/2099020,Bratislava,[Rome],"Louis, II, King of Bohemia and Hungary, 1506-1526","Brodarić, Stjepan",1524-01-12,Digitalna verzija: CroALa
brodaric-s-epistulae.xml,2095182,http://solr.ffzg.hr/basex/node/croala/2099114,Rome,Unknown,"Brodarić, Stjepan","Vafer, Theodor",1524-02-11,Digitalna verzija: CroALa
brodaric-s-epistulae.xml,2095277,http://solr.ffzg.hr/basex/node/croala/2099168,Rome,Unknown,"Brodarić, Stjepan","Ferdinand I, Holy Roman Emperor, 1503-1564",1524-02-29,Digitalna verzija: CroALa
brodaric-s-epistulae.xml,2095373,http://solr.ffzg.hr/basex/node/croala/2099228,Buda,[Rome],"Louis, II, King of Bohemia and Hungary, 1506-1526","Brodarić, Stjepan",1524-03-08,Digitalna verzija: CroALa
brodaric-s-epistulae.xml,2095468,http://solr.ffzg.hr/basex/node/croala/2099360,Rome,[Vienna],"Brodarić, Stjepan","Ferdinand I, Holy Roman Emperor, 1503-1564",1524-05-03,Digitalna verzija: CroALa
brodaric-s-epistulae.xml,2095563,http://solr.ffzg.hr/basex/node/croala/2099414,Rome,[Kraków],"Brodarić, Stjepan","Sigismund I, King of Poland, 1467-1548",1524-05-03,Digitalna verzija: CroALa
brodaric-s-epistulae.xml,2095658,http://solr.ffzg.hr/basex/node/croala/2099474,Rome,[Kraków],"Brodarić, Stjepan","Sigismund I, King of Poland, 1467-1548",1524-05-07,Digitalna verzija: CroALa
brodaric-s-epistulae.xml,2095753,http://solr.ffzg.hr/basex/node/croala/2099531,Vienna,Rome,"Brodarić, Stjepan","Clement VII, Pope, 1478-1534",1524-08-21,Digitalna verzija: CroALa
brodaric-s-epistulae.xml,2095848,http://solr.ffzg.hr/basex/node/croala/2099597,Buda,Unknown,"Brodarić, Stjepan","Salviati, Giovanni",1524-11-04,Digitalna verzija: CroALa
brodaric-s-epistulae.xml,2095944,http://solr.ffzg.hr/basex/node/croala/2099678,Buda,Rome,"Brodarić, Stjepan","Clement VII, Pope, 1478-1534",1524-11-22,Digitalna verzija: CroALa
brodaric-s-epistulae.xml,2096039,http://solr.ffzg.hr/basex/node/croala/2099741,Buda,Unknown,"Brodarić, Stjepan","Salviati, Giovanni",1524-12-04,Digitalna verzija: CroALa
brodaric-s-epistulae.xml,2096135,http://solr.ffzg.hr/basex/node/croala/2099792,Buda,Unknown,"Brodarić, Stjepan","Louis, II, King of Bohemia and Hungary, 1506-1526",1524-12-09,Digitalna verzija: CroALa
brodaric-s-epistulae.xml,2096231,http://solr.ffzg.hr/basex/node/croala/2099825,Buda,Unknown,"Brodarić, Stjepan","Louis, II, King of Bohemia and Hungary, 1506-1526",1525-02-21,Digitalna verzija: CroALa
brodaric-s-epistulae.xml,2096327,http://solr.ffzg.hr/basex/node/croala/2099858,[Kraków],[Rome],"Sigismund I, King of Poland, 1467-1548","Brodarić, Stjepan",,Digitalna verzija: CroALa
brodaric-s-epistulae.xml,2096423,http://solr.ffzg.hr/basex/node/croala/2099888,Kraków,[Rome],"Statilić, Ivan","Brodarić, Stjepan",1525-04-12,Digitalna verzija: CroALa
brodaric-s-epistulae.xml,2096518,http://solr.ffzg.hr/basex/node/croala/2099918,[Kraków],[Rome],"Sigismund I, King of Poland, 1467-1548","Brodarić, Stjepan",,Digitalna verzija: CroALa
brodaric-s-epistulae.xml,2096614,http://solr.ffzg.hr/basex/node/croala/2099948,Rome,[Kraków],"Brodarić, Stjepan","Sigismund I, King of Poland, 1467-1548",1525-05-17,Digitalna verzija: CroALa
brodaric-s-epistulae.xml,2096709,http://solr.ffzg.hr/basex/node/croala/2100050,Rome,Unknown,"Brodarić, Stjepan","Salviati, Giovanni",1525-05-20,Digitalna verzija: CroALa
brodaric-s-epistulae.xml,2096805,http://solr.ffzg.hr/basex/node/croala/2100122,Rome,Unknown,"Brodarić, Stjepan","Salviati, Giovanni",1525-06-10,Digitalna verzija: CroALa
brodaric-s-epistulae.xml,2096901,http://solr.ffzg.hr/basex/node/croala/2100233,[Kraków],[Rome],"Sigismund I, King of Poland, 1467-1548","Brodarić, Stjepan",1525-06-12,Digitalna verzija: CroALa
brodaric-s-epistulae.xml,2096996,http://solr.ffzg.hr/basex/node/croala/2100290,Rome,[Kraków],"Brodarić, Stjepan","Sigismund I, King of Poland, 1467-1548",1525-07-04,Digitalna verzija: CroALa
brodaric-s-epistulae.xml,2097091,http://solr.ffzg.hr/basex/node/croala/2100401,Kraków,[Rome],Bona Sforza 1494-1557,"Brodarić, Stjepan",1525-07-05,Digitalna verzija: CroALa
brodaric-s-epistulae.xml,2097186,http://solr.ffzg.hr/basex/node/croala/2100449,Rome,[Kraków],"Brodarić, Stjepan","Sigismund I, King of Poland, 1467-1548",1525-08-04,Digitalna verzija: CroALa
brodaric-s-epistulae.xml,2097281,http://solr.ffzg.hr/basex/node/croala/2100484,Buda,Rome,"Brodarić, Stjepan","Clement VII, Pope, 1478-1534",1525-09-13,Digitalna verzija: CroALa
